{
  "100-00000-0000-0113": {
    "containerId": "100-00000-0000-0113",
    "parentId": "100-00000-0000-0011",
    "title": "Datos del negocio",
    "description": "Datos del negocio",
    "status": 0,
    "statusFunction": "",
    "customStatus": 0,
    "customStatusDescription": [],
    "customStatusFunction": "",
    "customValue": "",
    "customValueFunction": "",
    "updateAgents": [],
    "validateAgents": [],
    "readAgents": [],
    "assignedAgent": {},
    "validatorAgent": {},
    "data": {
      "validation": null,
      "autosave": null,
      "values": {
        "TipoNegocio": {
          "keyName": "BusinessType",
          "fullName": "TipoNegocio",
          "status": 0,
          "selection": null,
          "selectionExample": [
            {
              "key": null,
              "value": null,
              "parentKey": null
            }
          ]
        },
        "ActividadSector": {
          "keyName": "EconomicSector",
          "fullName": "ActividadSector",
          "status": 0,
          "selection": null,
          "selectionExample": [
            {
              "key": null,
              "value": null,
              "parentKey": null
            }
          ]
        },
        "NombreNegocio": {
          "keyName": "Alphanumeric",
          "fullName": "NombreNegocio",
          "value": null
        },
        "TiempoExperiencia": {
          "keyName": "Number",
          "fullName": "TiempoExperiencia",
          "value": null
        },
        "TiempoOperacion": {
          "keyName": "Number",
          "fullName": "TiempoOperacion",
          "value": null
        },
        "InscritoCamaraComercio": {
          "keyName": "Bool",
          "fullName": "InscritoCamaraComercio",
          "value": null
        },
        "EmpleadosFijos": {
          "keyName": "Number",
          "fullName": "EmpleadosFijos",
          "value": null
        },
        "EmpleadosTemporales": {
          "keyName": "Number",
          "fullName": "EmpleadosTemporales",
          "value": null
        },
        "IngresosMensuales": {
          "keyName": "Currency",
          "fullName": "IngresosMensuales",
          "value": null
        },
        "EgresosMensuales": {
          "keyName": "Currency",
          "fullName": "EgresosMensuales",
          "value": null
        },
        "DireccionNegocio": {
          "keyName": "Alphanumeric",
          "fullName": "DireccionNegocio",
          "value": null
        },
        "ReferenciaUbicacion": {
          "keyName": "Alphanumeric",
          "fullName": "ReferenciaUbicacion",
          "value": null
        },
        "TelefonoNegocio": {
          "keyName": "TelephoneNumber",
          "fullName": "TelefonoNegocio",
          "value": null
        },
        "Activos": {
          "keyName": "Actives",
          "fullName": "Activos",
          "baseKeyName": "Active",
          "baseVersion": 1,
          "value": null,
          "status": 0,
          "description": "Tabla"
        }
      }
    }
  }
}