<?xml version="1.0" encoding="UTF-8"?>
<kml xmlns="http://www.opengis.net/kml/2.2" xmlns:gx="http://www.google.com/kml/ext/2.2" xmlns:kml="http://www.opengis.net/kml/2.2" xmlns:atom="http://www.w3.org/2005/Atom">
<Document>
	<name>ANTIOQUIA1.KML</name>
	<Folder>
		<name>ANTIOQUIA1.KML</name>
		<description>ANTIOQUIA1</description>
		<gx:balloonVisibility>1</gx:balloonVisibility>
		<Placemark>
			<name>ANTIOQUIA1</name>
			<description></description>
			<styleUrl></styleUrl>
			<Polygon>
				<extrude>1</extrude>
				<tessellate>1</tessellate>
				<outerBoundaryIs>
					<LinearRing>
						<coordinates>
							-75.608597, 6.217029,0 
							-75.597396, 6.218330,0 
							-75.598662, 6.205894,0 
							-75.610013, 6.210011,0
						</coordinates>
					</LinearRing>
				</outerBoundaryIs>
			</Polygon>
		</Placemark>
	</Folder>
</Document>
</kml>
