{
  "100-00000-0000-0121" : {
      "containerId": "100-00000-0000-0121",
      "parentId": "100-00000-0000-0012",
      "title": "Toma de decisión",
      "description": "Toma de decisión",
      "status": 0,
      "statusFunction": "",
      "customStatus": 0,
      "customStatusDescription": [
      ],
      "customStatusFunction": "",
      "customValue": "",
      "customValueFunction": "",
      "updateAgents": [],
      "validateAgents": [],
      "readAgents": [],
      "assignedAgent": {
      },
      "validatorAgent": {
      },
      "data": {
        "validation": null,
        "autosave": null,
        "values": {
          "MontoAprobado": {
            "keyName": "Currency",
            "fullName": "MontoAprobado",
            "value": null
          },
          "NumeroCuotas": {
            "keyName": "Number",
            "fullName": "NumeroCuotas",
            "value": null
          },
          "ValorCuotas": {
            "keyName": "Currency",
            "fullName": "ValorCuotas",
            "value": null
          },
          "FormaPago": {
            "keyName": "PaymentMode",
            "fullName": "FormaPago",
            "status": 0,
            "selection":  null,
            "selectionExample": [
              {
                "key": null,
                "value":  null,
                "parentKey":  null
              }
            ]
          },
          "ValorGarantias": {
            "keyName": "Currency",
            "fullName": "ValorGarantias",
            "value": null
          },
          "ResultadoModeloRiesgos": {
            "keyName": "Decimal",
            "fullName": "ResultadoModeloRiesgos",
            "value": null
          },
          "Observaciones": {
            "keyName": "Alphanumeric",
            "fullName": "Observaciones",
            "value": null
          }
        }
      }
    }
  }